%YAML 1.1
%TAG !u! tag:unity3d.com,2011:
--- !u!1 &7115301698927956113
GameObject:
  m_ObjectHideFlags: 0
  m_CorrespondingSourceObject: {fileID: 0}
  m_PrefabInstance: {fileID: 0}
  m_PrefabAsset: {fileID: 0}
  serializedVersion: 6
  m_Component:
  - component: {fileID: 7115301698927956112}
  m_Layer: 0
  m_Name: Tile Triangle Spec 1 (1)
  m_TagString: Untagged
  m_Icon: {fileID: 0}
  m_NavMeshLayer: 0
  m_StaticEditorFlags: 0
  m_IsActive: 1
--- !u!4 &7115301698927956112
Transform:
  m_ObjectHideFlags: 0
  m_CorrespondingSourceObject: {fileID: 0}
  m_PrefabInstance: {fileID: 0}
  m_PrefabAsset: {fileID: 0}
  m_GameObject: {fileID: 7115301698927956113}
  m_LocalRotation: {x: 0, y: 0, z: 0, w: 1}
  m_LocalPosition: {x: 0, y: 0, z: 0}
  m_LocalScale: {x: 1, y: 1, z: 1}
  m_Children:
  - {fileID: 3174930627708124109}
  - {fileID: 3626083637266397484}
  m_Father: {fileID: 0}
  m_RootOrder: 0
  m_LocalEulerAnglesHint: {x: 0, y: 0, z: 0}
--- !u!1001 &7115301698123779220
PrefabInstance:
  m_ObjectHideFlags: 0
  serializedVersion: 2
  m_Modification:
    m_TransformParent: {fileID: 7115301698927956112}
    m_Modifications:
    - target: {fileID: 5670383395304781657, guid: ec592c7df285f42848947cfbff27bf1e,
        type: 3}
      propertyPath: m_LocalPosition.x
      value: 1.74
      objectReference: {fileID: 0}
    - target: {fileID: 5670383395304781657, guid: ec592c7df285f42848947cfbff27bf1e,
        type: 3}
      propertyPath: m_LocalPosition.y
      value: -3
      objectReference: {fileID: 0}
    - target: {fileID: 5670383395304781657, guid: ec592c7df285f42848947cfbff27bf1e,
        type: 3}
      propertyPath: m_LocalPosition.z
      value: -0.52
      objectReference: {fileID: 0}
    - target: {fileID: 5670383395304781657, guid: ec592c7df285f42848947cfbff27bf1e,
        type: 3}
      propertyPath: m_LocalRotation.x
      value: -0
      objectReference: {fileID: 0}
    - target: {fileID: 5670383395304781657, guid: ec592c7df285f42848947cfbff27bf1e,
        type: 3}
      propertyPath: m_LocalRotation.y
      value: 0.38268343
      objectReference: {fileID: 0}
    - target: {fileID: 5670383395304781657, guid: ec592c7df285f42848947cfbff27bf1e,
        type: 3}
      propertyPath: m_LocalRotation.z
      value: -0
      objectReference: {fileID: 0}
    - target: {fileID: 5670383395304781657, guid: ec592c7df285f42848947cfbff27bf1e,
        type: 3}
      propertyPath: m_LocalRotation.w
      value: 0.92387956
      objectReference: {fileID: 0}
    - target: {fileID: 5670383395304781657, guid: ec592c7df285f42848947cfbff27bf1e,
        type: 3}
      propertyPath: m_RootOrder
      value: 0
      objectReference: {fileID: 0}
    - target: {fileID: 5670383395304781657, guid: ec592c7df285f42848947cfbff27bf1e,
        type: 3}
      propertyPath: m_LocalEulerAnglesHint.x
      value: 0
      objectReference: {fileID: 0}
    - target: {fileID: 5670383395304781657, guid: ec592c7df285f42848947cfbff27bf1e,
        type: 3}
      propertyPath: m_LocalEulerAnglesHint.y
      value: 45
      objectReference: {fileID: 0}
    - target: {fileID: 5670383395304781657, guid: ec592c7df285f42848947cfbff27bf1e,
        type: 3}
      propertyPath: m_LocalEulerAnglesHint.z
      value: 0
      objectReference: {fileID: 0}
    - target: {fileID: 5670383395304781657, guid: ec592c7df285f42848947cfbff27bf1e,
        type: 3}
      propertyPath: m_LocalScale.x
      value: 3
      objectReference: {fileID: 0}
    - target: {fileID: 5670383395304781657, guid: ec592c7df285f42848947cfbff27bf1e,
        type: 3}
      propertyPath: m_LocalScale.y
      value: 12
      objectReference: {fileID: 0}
    - target: {fileID: 5670383395304781657, guid: ec592c7df285f42848947cfbff27bf1e,
        type: 3}
      propertyPath: m_LocalScale.z
      value: 5
      objectReference: {fileID: 0}
    - target: {fileID: 1040116904514537691, guid: ec592c7df285f42848947cfbff27bf1e,
        type: 3}
      propertyPath: m_Name
      value: Obstacle (1)
      objectReference: {fileID: 0}
    m_RemovedComponents: []
  m_SourcePrefab: {fileID: 100100000, guid: ec592c7df285f42848947cfbff27bf1e, type: 3}
--- !u!4 &3174930627708124109 stripped
Transform:
  m_CorrespondingSourceObject: {fileID: 5670383395304781657, guid: ec592c7df285f42848947cfbff27bf1e,
    type: 3}
  m_PrefabInstance: {fileID: 7115301698123779220}
  m_PrefabAsset: {fileID: 0}
--- !u!1001 &7115301698384783779
PrefabInstance:
  m_ObjectHideFlags: 0
  serializedVersion: 2
  m_Modification:
    m_TransformParent: {fileID: 7115301698927956112}
    m_Modifications:
    - target: {fileID: 5831263117877432459, guid: 08c12d342baee469a88909840d0cad65,
        type: 3}
      propertyPath: m_Name
      value: Tile Triangle (10)
      objectReference: {fileID: 0}
    - target: {fileID: 5831263117877432463, guid: 08c12d342baee469a88909840d0cad65,
        type: 3}
      propertyPath: m_LocalPosition.x
      value: 0
      objectReference: {fileID: 0}
    - target: {fileID: 5831263117877432463, guid: 08c12d342baee469a88909840d0cad65,
        type: 3}
      propertyPath: m_LocalPosition.y
      value: 0
      objectReference: {fileID: 0}
    - target: {fileID: 5831263117877432463, guid: 08c12d342baee469a88909840d0cad65,
        type: 3}
      propertyPath: m_LocalPosition.z
      value: 0
      objectReference: {fileID: 0}
    - target: {fileID: 5831263117877432463, guid: 08c12d342baee469a88909840d0cad65,
        type: 3}
      propertyPath: m_LocalRotation.x
      value: -0
      objectReference: {fileID: 0}
    - target: {fileID: 5831263117877432463, guid: 08c12d342baee469a88909840d0cad65,
        type: 3}
      propertyPath: m_LocalRotation.y
      value: 1
      objectReference: {fileID: 0}
    - target: {fileID: 5831263117877432463, guid: 08c12d342baee469a88909840d0cad65,
        type: 3}
      propertyPath: m_LocalRotation.z
      value: -0
      objectReference: {fileID: 0}
    - target: {fileID: 5831263117877432463, guid: 08c12d342baee469a88909840d0cad65,
        type: 3}
      propertyPath: m_LocalRotation.w
      value: 0
      objectReference: {fileID: 0}
    - target: {fileID: 5831263117877432463, guid: 08c12d342baee469a88909840d0cad65,
        type: 3}
      propertyPath: m_RootOrder
      value: 1
      objectReference: {fileID: 0}
    - target: {fileID: 5831263117877432463, guid: 08c12d342baee469a88909840d0cad65,
        type: 3}
      propertyPath: m_LocalEulerAnglesHint.x
      value: 0
      objectReference: {fileID: 0}
    - target: {fileID: 5831263117877432463, guid: 08c12d342baee469a88909840d0cad65,
        type: 3}
      propertyPath: m_LocalEulerAnglesHint.y
      value: 180
      objectReference: {fileID: 0}
    - target: {fileID: 5831263117877432463, guid: 08c12d342baee469a88909840d0cad65,
        type: 3}
      propertyPath: m_LocalEulerAnglesHint.z
      value: 0
      objectReference: {fileID: 0}
    - target: {fileID: 5831263117877432463, guid: 08c12d342baee469a88909840d0cad65,
        type: 3}
      propertyPath: m_LocalScale.x
      value: 15
      objectReference: {fileID: 0}
    - target: {fileID: 5831263117877432463, guid: 08c12d342baee469a88909840d0cad65,
        type: 3}
      propertyPath: m_LocalScale.z
      value: 15
      objectReference: {fileID: 0}
    - target: {fileID: 6423577577838493489, guid: 08c12d342baee469a88909840d0cad65,
        type: 3}
      propertyPath: m_LocalPosition.x
      value: -0.184
      objectReference: {fileID: 0}
    - target: {fileID: 6423577577838493489, guid: 08c12d342baee469a88909840d0cad65,
        type: 3}
      propertyPath: m_LocalPosition.z
      value: 0.516
      objectReference: {fileID: 0}
    - target: {fileID: 6423577577838493489, guid: 08c12d342baee469a88909840d0cad65,
        type: 3}
      propertyPath: m_LocalScale.x
      value: 0.9
      objectReference: {fileID: 0}
    - target: {fileID: 2544692477433399758, guid: 08c12d342baee469a88909840d0cad65,
        type: 3}
      propertyPath: m_IsActive
      value: 0
      objectReference: {fileID: 0}
    - target: {fileID: 3040396967339607124, guid: 08c12d342baee469a88909840d0cad65,
        type: 3}
      propertyPath: m_IsActive
      value: 0
      objectReference: {fileID: 0}
    m_RemovedComponents: []
  m_SourcePrefab: {fileID: 100100000, guid: 08c12d342baee469a88909840d0cad65, type: 3}
--- !u!4 &3626083637266397484 stripped
Transform:
  m_CorrespondingSourceObject: {fileID: 5831263117877432463, guid: 08c12d342baee469a88909840d0cad65,
    type: 3}
  m_PrefabInstance: {fileID: 7115301698384783779}
  m_PrefabAsset: {fileID: 0}
