%YAML 1.1
%TAG !u! tag:unity3d.com,2011:
--- !u!687078895 &4343727234628468602
SpriteAtlas:
  m_ObjectHideFlags: 0
  m_CorrespondingSourceObject: {fileID: 0}
  m_PrefabInstance: {fileID: 0}
  m_PrefabAsset: {fileID: 0}
  m_Name: Sprites
  m_EditorData:
    serializedVersion: 2
    textureSettings:
      serializedVersion: 2
      anisoLevel: 1
      compressionQuality: 50
      maxTextureSize: 2048
      textureCompression: 0
      filterMode: 0
      generateMipMaps: 0
      readable: 0
      crunchedCompression: 0
      sRGB: 1
    platformSettings:
    - serializedVersion: 2
      m_BuildTarget: DefaultTexturePlatform
      m_MaxTextureSize: 2048
      m_ResizeAlgorithm: 0
      m_TextureFormat: -1
      m_TextureCompression: 1
      m_CompressionQuality: 50
      m_CrunchedCompression: 0
      m_AllowsAlphaSplitting: 0
      m_Overridden: 0
      m_AndroidETC2FallbackOverride: 0
    packingSettings:
      serializedVersion: 2
      padding: 4
      blockOffset: 1
      allowAlphaSplitting: 0
      enableRotation: 0
      enableTightPacking: 0
    variantMultiplier: 1
    packables:
    - {fileID: 102900000, guid: 73c646f4776594072ab0cbb7d941cecc, type: 3}
    totalSpriteSurfaceArea: 917504
    bindAsDefault: 1
  m_MasterAtlas: {fileID: 0}
  m_PackedSprites:
  - {fileID: 21300000, guid: 8579d2814259f4d7c9670d2c1db1e0f9, type: 3}
  - {fileID: 21300000, guid: b5dada91941f543289ce6e6f49a5822d, type: 3}
  - {fileID: 21300000, guid: 5dca2da330b394593865740649532660, type: 3}
  - {fileID: 21300000, guid: 0ceddaf3b997d430c8b666d36cba5ef7, type: 3}
  - {fileID: 21300000, guid: 5706b856c104a43aa9809ff3ef32013e, type: 3}
  - {fileID: 21300000, guid: 38f40e2778b8647b1b93b45c239d192a, type: 3}
  - {fileID: 21300000, guid: d897bf08fc0f4446bb0c1a294a50d31e, type: 3}
  - {fileID: 21300000, guid: 7f57405843a2a4386b05c884f367dc71, type: 3}
  - {fileID: 21300000, guid: 167e4d1a0d33d4c21a0a64d6db6969fb, type: 3}
  - {fileID: 21300000, guid: 79f85b1b188e04ca2a61590af65275ec, type: 3}
  - {fileID: 21300000, guid: f86f914bf5387463ca2bd530109e1700, type: 3}
  - {fileID: 21300000, guid: ee07638b38f69488e9045acd3d374b1d, type: 3}
  - {fileID: 21300000, guid: 45d49b2da7e0d4a468b265b1c60fa989, type: 3}
  - {fileID: 21300000, guid: cce4209dd1d7743338c73eaf4490e95b, type: 3}
  - {fileID: 21300000, guid: 4425fbfdcee984dc6a11c77023f6b300, type: 3}
  - {fileID: 21300000, guid: a015eb7e4dffb427ca8229e0f74634a6, type: 3}
  - {fileID: 21300000, guid: 5f7a58bfadc754af68ffb30884ba14a0, type: 3}
  m_PackedSpriteNamesToIndex:
  - ic_shell
  - ic_right
  - ic_left
  - round_rect_full_28px-L
  - ic_forward
  - ic_glitch
  - round_rect_28px
  - ic_healthBar
  - round_rect_28px-L
  - ic_invisible
  - ic_turret
  - ic_vision
  - ic_secondary
  - ic_chrome
  - ic_back
  - round_rect_full_28px-M
  - ic_crossed
  m_Tag: Sprites
  m_IsVariant: 0
