%YAML 1.1
%TAG !u! tag:unity3d.com,2011:
--- !u!114 &11400000
MonoBehaviour:
  m_ObjectHideFlags: 0
  m_CorrespondingSourceObject: {fileID: 0}
  m_PrefabInstance: {fileID: 0}
  m_PrefabAsset: {fileID: 0}
  m_GameObject: {fileID: 0}
  m_Enabled: 1
  m_EditorHideFlags: 0
  m_Script: {fileID: 11500000, guid: 8c1771e607bf4ebd9cfda30292ae57a3, type: 3}
  m_Name: VisionBlockMiddle
  m_EditorClassIdentifier: 
  Name: Vision Right
  Description: You will loose 9% of your screen IN THE MIDDLE
  Icon: {fileID: 0}
  IsActive:
    value: 0
